{
  "components":[
    {"id":"pkg:maven/org.ligoj.plugin/plugin-sample","type":"COMPONENT","namespace":"org.ligoj.plugin","name":"plugin-sample","projectName":null,"version":null,"publishedEpochMillis":null,"licenses":null,"description":"Plugin parent pom the plugins should have.","categories":["Other"],"latestVersionInfo":{"version":"0.0.1","timestampUnixWithMS":1756249804000,"licenses":["MIT License"]},"contributors":null,"nsPopularityAppCount":20,"nsPopularityOrgCount":1,"dependentOnCount":120,"dependencyOfCount":0,"childCount":0,"classifiers":["javadoc","sources","test-sources"],"packaging":"jar","mavenPluginPrefix":null,"ossIndexInfo":{"url":"https://guide.sonatype.com/component/maven/org.ligoj.plugin:plugin-prov-aws/2.0.2","vulnerabilityCount":null},"qualityScore":null,"bomDrInfo":{"url":"https://bomdoctor.sonatype.com/#/sbom/pkg:maven/org.ligoj.plugin/plugin-prov-aws@2.0.2"},"cherryBomUrl":null},
    {"id":"pkg:maven/org.ligoj.plugin/plugin-sample-ignore","type":"COMPONENT","namespace":"org.ligoj.plugin","name":"plugin-sample-ignore","projectName":null,"version":null,"publishedEpochMillis":null,"licenses":null,"description":"Plugin parent pom the plugins should have.","categories":["Other"],"latestVersionInfo":{"version":"0.0.1","timestampUnixWithMS":1756249774000,"licenses":["MIT License"]},"contributors":null,"nsPopularityAppCount":20,"nsPopularityOrgCount":1,"dependentOnCount":198,"dependencyOfCount":0,"childCount":0,"classifiers":["javadoc","sources","test-sources"],"packaging":"jar","mavenPluginPrefix":null,"ossIndexInfo":{"url":"https://guide.sonatype.com/component/maven/org.ligoj.plugin:plugin-bt-jira/1.1.1","vulnerabilityCount":null},"qualityScore":null,"bomDrInfo":{"url":"https://bomdoctor.sonatype.com/#/sbom/pkg:maven/org.ligoj.plugin/plugin-bt-jira@1.1.1"},"cherryBomUrl":null}
  ],
  "page":1,"pageSize":5,"pageCount":9,"totalResultCount":44,"totalCount":800105
}